CODIGO,NOMBRE DE LA ASIGNATURA,SEMESTRE,CREDITOS,PRE REQUISITO 1,PRE REQUISITO 2,HORAS TEORICAS,HORAS SEMINARIO,HORAS TEORICO PRACTICAS,HORAS PRACTICAS,HORAS LABORATORIO,ELECTIVO
1701102,razonamiento logico matematico,1,3,,,2,0,0,2,0,0
1701103,matematica basica,1,4,,,2,0,0,4,0,0
1701104,estructuras discretas 1,1,3,,,2,0,0,2,0,0
1701105,introduccion a la computacion,1,2,,,1,0,0,2,0,0
1701106,fundamentos de la programacion 1,1,5,,,2,0,0,2,4,0
1701114,metodologia del trabajo intelectual universitario,1,2,,,0,0,0,4,0,0
1701145, relaciones humanas en empresas de desarrollo de software y base tecnologica,1,2,,,1,0,0,2,0,0
1701210,calculo en una variable,2,4,1701103,,1,0,0,6,0,0
1701211,estructuras discretas 2,2,3,1701104,,2,0,0,2,0,0
1701212,programacion web 1,2,4,1701106,,2,0,0,0,4,0
1701213,fundamentos de programacion 2,2,5,1701106,,2,0,0,2,4,0
1701216,comunicacion integral,2,3,,,2,0,0,2,0,0
1701217,realidad nacional,2,2,,,1,0,0,2,0,0
1702118,talleres de psicologia,3,2,,,2,0,0,0,0,0
1702119,calculo en varias variables,3,4,1701210,,1,0,0,6,0,0
1702120,taller de liderazgo y colaboracion,3,2,1701145,,2,0,0,0,0,0
1702121,innovacion y creatividad,3,3,,,2,0,0,2,0,0
1702122,programacion web 2,3,4,1701212,,2,0,0,0,4,0
1702123,redaccion de articulos e informes de investigacion,3,2,,,2,0,0,0,0,0
1702124,estructura de datos y algoritmos,3,4,1701211,1701213,2,0,0,2,2,0
1702125,ciudadania e interculturalidad,3,2,,,1,0,0,2,0,0
1702226,estadistica matematica probabilidades y metodos empiricos,4,4,1702119,,2,0,0,2,2,0
1702227,arquitectura de computadoras,4,3,1702124,,1,0,0,2,2,0
1702228,metodos de investigacion y redaccion,4,2,1702123,,1,0,0,2,0,0
1702229,interaccion humano computador,4,4,1702118,1702122,2,0,0,2,2,0
1702230,enfoque empresarial,4,3,1702120,,1,0,0,4,0,0
1702231,analisis y diseno de algoritmos,4,4,1702124,,2,0,0,2,2,0
1702278,ecologia y conservacion ambiental,4,2,,,1,0,0,2,0,0
1703133,base de datos,5,4,1702230,,2,0,0,2,2,0
1703134,programacion de sistemas,5,4,1702227,,2,0,0,0,4,0
1703135,ingenieria y procesos de software,5,3,1702229,,1,0,0,4,0,0
1703136,teoria de la computacion,5,3,1702231,,1,0,0,2,2,0
1703137,organizacion y metodos,5,3,1702230,,1,0,0,2,2,0
1703138,investigacion de operaciones,5,4,1702119,,2,0,0,2,2,0
1703239,redes y comunicacion de datos,6,4,1702227,,2,0,0,2,2,0
1703240,tecnologia de objetos,6,4,1703135,,2,0,0,2,2,0
1703241,sistemas operativos,6,4,1703134,,2,0,0,2,2,0
1703242,fundamentos de sistemas de informacion,6,3,1703133,1703137,1,0,0,4,0,0
1703243,construccion de software,6,4,1703135,1703136,2,0,0,0,4,0
1703244,metodos numericos,6,3,1703138,,1,0,0,2,2,0
1704146,fisica computacional,7,3,1703244,,2,0,0,0,2,0
1704147,tecnologias de informacion,7,4,1703242,,2,0,0,2,2,0
1704148,inteligencia artificial,7,3,1702226,,1,0,0,4,0,0
1704149,ingenieria de requerimientos,7,4,1703240,1703243,2,0,0,2,2,0
1704150,sistemas distribuidos,7,4,1703239,1703241,2,0,0,2,2,0
1704151,pruebas de software,7,3,1703243,,2,0,0,0,2,0
1704153,ingles,7,2,,,1,0,0,2,0,0
1704252,gestion de proyectos de software,8,3,1704149,,2,0,0,0,2,0
1704254,calidad de software,8,3,1704151,,2,0,0,0,2,0
1704255,auditoria de sistemas,8,3,1703242,,1,0,0,4,0,0
1704256,diseno y arquitectura de software,8,4,1704149,,2,0,0,2,2,0
1704257,negocios electronicos,8,4,1704147,,3,0,0,0,2,1
1704258,introduccion al desarrollo de software de entretenimiento,8,4,1704148,,3,0,0,0,2,1
1704259,introduccion al desarrollo de nuevas plataformas,8,4,1704150,,3,0,0,0,2,1
1704260,aspectos formales de especificacion y verificacion,8,3,1703136,,2,0,0,0,2,0
1705161,proyecto de ingenieria de software 1,9,3,1704256,,2,0,0,0,2,0
1705162,seminario de tesis 1,9,3,1702228,1704252,2,0,0,2,0,0
1705163,gestion de emprendimiento de software,9,2,1704252,,1,0,0,2,0,0
1705164,seguridad informatica,9,3,1703239,,1,0,0,2,2,0
